california_homelessness
…
summary_of_table(homeless_data_for_summary)

## $EncounterType
## # A tibble: 2 × 3
##   EncounterType              Count Percentage
##   <chr>                      <int>      <dbl>
## 1 ED Visits                   5355       42.9
## 2 Inpatient Hospitalizations  7123       57.1
## 
## $System
## # A tibble: 31 × 3
##    System                            Count Percentage
##    <chr>                             <int>      <dbl>
##  1 AHMC Healthcare, Inc.               221      1.77 
##  2 ALTA Hospitals System               170      1.36 
##  3 Adventist Health Systems            561      4.50 
##  4 Alameda Health System               102      0.817
##  5 Avanti Hospitals                    136      1.09 
##  6 Cedars-Sinai Health System          102      0.817
##  7 County Of Los Angeles               119      0.954
##  8 Crestwood Behavioral Health, Inc.    85      0.681
##  9 Dignity Health                     1020      8.17 
## 10 Encompass Health Corporation         68      0.545
## # ℹ 21 more rows
## 
## $Ownership
…
